groupproject/groupproject.sim/sim_1/behav/xsim/tb_cpu.vcd
$date
   Wed Dec  3 19:42:02 2025
$end

$version
  2025.1.0
  $dumpfile ("tb_cpu.vcd") 
$end

$timescale
  1ps
$end

$scope module tb_cpu $end
$var reg 1 ! clk $end
$var reg 1 " rst $end
$var integer 32 # cycle [31:0] $end
$var integer 32 $ i [31:0] $end
$scope module CPU_UUT $end
$var wire 1 % clk $end
$var wire 1 & rst $end
$var wire 32 ' if_pc [31:0] $end
$var wire 32 ( if_next_pc [31:0] $end
$var wire 1 ) if_flush $end
$var wire 32 * if_id_instr [31:0] $end
$var wire 32 + if_id_pc [31:0] $end
$var wire 32 , id_pc [31:0] $end
$var wire 32 - id_reg_data1 [31:0] $end
$var wire 32 . id_reg_data2 [31:0] $end
$var wire 32 / id_imm [31:0] $end
$var wire 6 0 id_rd [5:0] $end
$var wire 6 1 id_rs [5:0] $end
$var wire 6 2 id_rt [5:0] $end
$var wire 4 3 id_opcode [3:0] $end
$var wire 1 4 id_reg_write $end
$var wire 1 5 id_mem_to_reg $end
$var wire 1 6 id_mem_write $end
$var wire 1 7 id_alu_src_a $end
$var wire 1 8 id_alu_src_b $end
$var wire 1 9 id_branch $end
$var wire 1 : id_jump $end
$var wire 3 ; id_alu_op [2:0] $end
$var wire 32 < id_ex_pc [31:0] $end
$var wire 32 = id_ex_reg_data1 [31:0] $end
$var wire 32 > id_ex_reg_data2 [31:0] $end
$var wire 32 ? id_ex_imm [31:0] $end
$var wire 6 @ id_ex_rd [5:0] $end
$var wire 6 A id_ex_rs [5:0] $end
$var wire 6 B id_ex_rt [5:0] $end
$var wire 4 C id_ex_opcode [3:0] $end
$var wire 1 D id_ex_reg_write $end
$var wire 1 E id_ex_mem_to_reg $end
$var wire 1 F id_ex_mem_write $end
$var wire 1 G id_ex_alu_src_a $end
$var wire 1 H id_ex_alu_src_b $end
$var wire 1 I id_ex_branch $end
$var wire 1 J id_ex_jump $end
$var wire 3 K id_ex_alu_op [2:0] $end
$var wire 32 L ex_alu_result [31:0] $end
$var wire 32 M ex_write_data [31:0] $end
$var wire 32 N ex_branch_target [31:0] $end
$var wire 1 O ex_zero_flag $end
$var wire 1 P ex_neg_flag $end
$var wire 1 Q id_preserve_flags $end
$var wire 1 R id_ex_preserve_flags $end
$var wire 32 S ex_wb_alu_result [31:0] $end
$var wire 32 T ex_wb_mem_data [31:0] $end
$var wire 6 U ex_wb_rd [5:0] $end
$var wire 6 V ex_wb_rt [5:0] $end
$var wire 4 W ex_wb_opcode [3:0] $end
$var wire 1 X ex_wb_zero_flag $end
$var wire 1 Y ex_wb_neg_flag $end
$var wire 1 Z ex_wb_reg_write $end
$var wire 1 [ ex_wb_mem_to_reg $end
$var wire 1 \ ex_wb_mem_write_sig $end
$var wire 32 ] mem_alu_result [31:0] $end
$var wire 32 ^ mem_read_data [31:0] $end
$var wire 6 _ mem_rd [5:0] $end
$var wire 6 ` mem_rt [5:0] $end
$var wire 4 a mem_opcode [3:0] $end
$var wire 1 b mem_zero_flag $end
$var wire 1 c mem_neg_flag $end
$var wire 1 d mem_reg_write $end
$var wire 1 e mem_mem_to_reg $end
$var wire 6 f wb_write_reg [5:0] $end
$var wire 32 g wb_write_data [31:0] $end
$var wire 1 h wb_write_en $end
$var wire 32 i alu_input1 [31:0] $end
$var wire 32 j alu_input2 [31:0] $end
$var wire 32 k if_instr [31:0] $end
$var reg 1 l reg_write_r $end
$var reg 6 m write_reg_r [5:0] $end
$var reg 32 n write_data_r [31:0] $end
$scope module IF_STAGE $end
$var wire 1 % clk $end
$var wire 1 & rst $end
$var wire 32 N branch_target [31:0] $end
$var wire 32 + id_pc [31:0] $end
$var wire 4 o id_opcode [3:0] $end
$var wire 4 C id_ex_opcode [3:0] $end
$var wire 1 J jump $end
$var wire 1 I branch $end
$var wire 1 b prev_zero_flag $end
$var wire 1 c prev_neg_flag $end
$var wire 32 ' pc_out [31:0] $end
$var wire 32 ( next_pc [31:0] $end
$var wire 1 ) flush $end
$var wire 32 p pc_plus_one [31:0] $end
$var wire 1 q branch_taken $end
$var wire 1 r pc_mux_sel $end
$scope module PC_ADDER $end
$var wire 32 ' a [31:0] $end
$var wire 32 s b [31:0] $end
$var wire 32 p out [31:0] $end
$upscope $end
$scope module BRANCH_LOGIC $end
$var wire 4 C opcode [3:0] $end
$var wire 1 b zero_flag $end
$var wire 1 c neg_flag $end
$var reg 1 t branch_taken $end
$upscope $end
$scope module PC_MUX $end
$var wire 32 p in0 [31:0] $end
$var wire 32 N in1 [31:0] $end
$var wire 1 r sel $end
$var wire 32 ( out [31:0] $end
$upscope $end
$scope module PC_REG $end
$var wire 1 % clk $end
$var wire 1 & rst $end
$var wire 32 ( pc_in [31:0] $end
$var reg 32 u pc_out [31:0] $end
$upscope $end
$upscope $end
$scope module IF_IMEM_INST $end
$var wire 32 ' address [31:0] $end
$var reg 32 v instruction [31:0] $end
$var integer 32 w i [31:0] $end
$upscope $end
$scope module IF_ID_REG $end
$var wire 1 % clk $end
$var wire 1 x flush $end
$var wire 32 k instr_in [31:0] $end
$var wire 32 ' pc_in [31:0] $end
$var reg 32 y instr_out [31:0] $end
$var reg 32 z pc_out [31:0] $end
$upscope $end
$scope module ID_STAGE $end
$var wire 1 % clk $end
$var wire 1 & rst $end
$var wire 32 * if_id_instr [31:0] $end
$var wire 32 + if_id_pc [31:0] $end
$var wire 1 { wb_reg_write $end
$var wire 6 | wb_write_reg [5:0] $end
$var wire 32 } wb_write_data [31:0] $end
$var wire 32 , id_pc [31:0] $end
$var wire 32 - id_reg_data1 [31:0] $end
$var wire 32 . id_reg_data2 [31:0] $end
$var wire 32 / id_imm [31:0] $end
$var wire 6 0 id_rd [5:0] $end
$var wire 6 1 id_rs [5:0] $end
$var wire 6 2 id_rt [5:0] $end
$var wire 4 3 id_opcode [3:0] $end
$var wire 1 4 id_reg_write $end
$var wire 1 5 id_mem_to_reg $end
$var wire 1 6 id_mem_write $end
$var wire 1 7 id_alu_src_a $end
$var wire 1 8 id_alu_src_b $end
$var wire 3 ; id_alu_op [2:0] $end
$var wire 1 9 id_branch $end
$var wire 1 : id_jump $end
$var wire 1 Q id_preserve_flags $end
$var wire 4 ~ opcode [3:0] $end
$var wire 6 !! rt [5:0] $end
$var wire 6 "! rs [5:0] $end
$var wire 6 #! rd [5:0] $end
$var wire 10 $! imm [9:0] $end
$var wire 6 %! read_reg1_sel [5:0] $end
$scope module ID_CONTROL $end
$var wire 4 ~ opcode [3:0] $end
$var reg 1 &! reg_write $end
$var reg 1 '! mem_to_reg $end
$var reg 1 (! mem_write $end
$var reg 1 )! alu_src_a $end
$var reg 1 *! alu_src_b $end
$var reg 3 +! alu_op [2:0] $end
$var reg 1 ,! branch $end
$var reg 1 -! jump $end
$var reg 1 .! preserve_flags $end
$upscope $end
$scope module ID_REG_FILE $end
$var wire 1 % clk $end
$var wire 1 & rst $end
$var wire 1 { reg_write_en $end
$var wire 6 %! read_reg1 [5:0] $end
$var wire 6 !! read_reg2 [5:0] $end
$var wire 6 | write_reg [5:0] $end
$var wire 32 } write_data [31:0] $end
$var wire 32 - read_data1 [31:0] $end
$var wire 32 . read_data2 [31:0] $end
$var integer 32 /! i [31:0] $end
$scope task initialize_register $end
$var reg 6 0! reg_index [5:0] $end
$var reg 32 1! reg_value [31:0] $end
$upscope $end
$upscope $end
$scope module ID_IMM_GEN $end
$var wire 32 * instruction [31:0] $end
$var reg 32 2! imm_out [31:0] $end
$upscope $end
$upscope $end
$scope module ID_EX_REG $end
$var wire 1 % clk $end
$var wire 1 & rst $end
$var wire 1 ) flush $end
$var wire 32 , id_pc [31:0] $end
$var wire 32 - id_reg_data1 [31:0] $end
$var wire 32 . id_reg_data2 [31:0] $end
$var wire 32 / id_imm [31:0] $end
$var wire 6 0 id_rd [5:0] $end
$var wire 6 1 id_rs [5:0] $end
$var wire 6 2 id_rt [5:0] $end
$var wire 4 3 id_opcode [3:0] $end
$var wire 1 4 id_reg_write $end
$var wire 1 5 id_mem_to_reg $end
$var wire 1 6 id_mem_write $end
$var wire 1 7 id_alu_src_a $end
$var wire 1 8 id_alu_src_b $end
$var wire 3 ; id_alu_op [2:0] $end
$var wire 1 9 id_branch $end
$var wire 1 : id_jump $end
$var wire 1 Q id_preserve_flags $end
$var reg 32 3! ex_pc [31:0] $end
$var reg 32 4! ex_reg_data1 [31:0] $end
$var reg 32 5! ex_reg_data2 [31:0] $end
$var reg 32 6! ex_imm [31:0] $end
$var reg 6 7! ex_rd [5:0] $end
$var reg 6 8! ex_rs [5:0] $end
$var reg 6 9! ex_rt [5:0] $end
$var reg 4 :! ex_opcode [3:0] $end
$var reg 1 ;! ex_reg_write $end
$var reg 1 <! ex_mem_to_reg $end
$var reg 1 =! ex_mem_write $end
$var reg 1 >! ex_alu_src_a $end
$var reg 1 ?! ex_alu_src_b $end
$var reg 3 @! ex_alu_op [2:0] $end
$var reg 1 A! ex_branch $end
$var reg 1 B! ex_jump $end
$var reg 1 C! ex_preserve_flags $end
$upscope $end
$scope module FORWARD_UNIT $end
$var wire 6 A id_ex_rs [5:0] $end
$var wire 6 B id_ex_rt [5:0] $end
$var wire 6 U ex_wb_rd [5:0] $end
$var wire 1 Z ex_wb_reg_write $end
$var wire 6 D! mem_rd [5:0] $end
$var wire 1 E! mem_reg_write $end
$var wire 32 = id_ex_reg_data1 [31:0] $end
$var wire 32 > id_ex_reg_data2 [31:0] $end
$var wire 32 S ex_wb_alu_result [31:0] $end
$var wire 32 F! mem_alu_result [31:0] $end
$var wire 32 i alu_input1 [31:0] $end
$var wire 32 j alu_input2 [31:0] $end
$upscope $end
$scope module EX_STAGE $end
$var wire 32 < id_ex_pc [31:0] $end
$var wire 32 i id_ex_reg_data1 [31:0] $end
$var wire 32 j id_ex_reg_data2 [31:0] $end
$var wire 32 ? id_ex_imm [31:0] $end
$var wire 4 C id_ex_opcode [3:0] $end
$var wire 1 G alu_src_a $end
$var wire 1 H alu_src_b $end
$var wire 3 K alu_op [2:0] $end
$var wire 1 F id_ex_mem_write $end
$var wire 1 R preserve_flags $end
$var wire 1 X prev_zero_flag $end
$var wire 1 Y prev_neg_flag $end
$var wire 32 L ex_alu_result [31:0] $end
$var wire 32 M ex_write_data [31:0] $end
$var wire 32 N ex_branch_target [31:0] $end
$var wire 1 O zero_flag $end
$var wire 1 P neg_flag $end
$var wire 32 G! alu_operand_a [31:0] $end
$var wire 32 H! alu_operand_b [31:0] $end
$var wire 1 I! alu_zero $end
$var wire 1 J! alu_neg $end
$scope module EX_ALU_MUX_A $end
$var wire 32 i in0 [31:0] $end
$var wire 32 < in1 [31:0] $end
$var wire 1 G sel $end
$var wire 32 G! out [31:0] $end
$upscope $end
$scope module EX_ALU_MUX_B $end
$var wire 32 j in0 [31:0] $end
$var wire 32 ? in1 [31:0] $end
$var wire 1 H sel $end
$var wire 32 H! out [31:0] $end
$upscope $end
$scope module EX_ALU $end
$var wire 32 G! a [31:0] $end
$var wire 32 H! b [31:0] $end
$var wire 3 K alu_control [2:0] $end
$var reg 32 K! result [31:0] $end
$var wire 1 I! zero $end
$var wire 1 J! negative $end
$var wire 1 L! cmd_add $end
$var wire 1 M! cmd_neg $end
$var wire 1 N! cmd_sub $end
$upscope $end
$upscope $end
$scope module EX_WB_REG $end
$var wire 1 % clk $end
$var wire 1 & rst $end
$var wire 1 ) flush $end
$var wire 32 L ex_alu_result [31:0] $end
$var wire 32 M ex_mem_data [31:0] $end
$var wire 6 @ ex_rd [5:0] $end
$var wire 6 B ex_rt [5:0] $end
$var wire 4 C ex_opcode [3:0] $end
$var wire 1 O ex_zero_flag $end
$var wire 1 P ex_neg_flag $end
$var wire 1 D ex_reg_write $end
$var wire 1 E ex_mem_to_reg $end
$var wire 1 R ex_preserve_flags $end
$var wire 1 F ex_mem_write $end
$var reg 32 O! wb_alu_result [31:0] $end
$var reg 32 P! wb_mem_data [31:0] $end
$var reg 6 Q! wb_rd [5:0] $end
$var reg 6 R! wb_rt [5:0] $end
$var reg 4 S! wb_opcode [3:0] $end
$var reg 1 T! wb_zero_flag $end
$var reg 1 U! wb_neg_flag $end
$var reg 1 V! wb_reg_write $end
$var reg 1 W! wb_mem_to_reg $end
$var reg 1 X! wb_mem_write $end
$upscope $end
$scope module MEM_STAGE $end
$var wire 1 % clk $end
$var wire 32 S ex_alu_result [31:0] $end
$var wire 32 T ex_write_data [31:0] $end
$var wire 6 U ex_rd [5:0] $end
$var wire 6 V ex_rt [5:0] $end
$var wire 4 W ex_opcode [3:0] $end
$var wire 1 X ex_zero_flag $end
$var wire 1 Y ex_neg_flag $end
$var wire 1 Z ex_reg_write $end
$var wire 1 [ ex_mem_to_reg $end
$var wire 1 \ ex_mem_write $end
$var wire 32 ] mem_alu_result [31:0] $end
$var wire 32 ^ mem_read_data [31:0] $end
$var wire 6 _ mem_rd [5:0] $end
$var wire 6 ` mem_rt [5:0] $end
$var wire 4 a mem_opcode [3:0] $end
$var wire 1 b mem_zero_flag $end
$var wire 1 c mem_neg_flag $end
$var wire 1 d mem_reg_write $end
$var wire 1 e mem_mem_to_reg $end
$scope module DATA_MEM $end
$var wire 1 % clk $end
$var wire 32 S address [31:0] $end
$var wire 32 T write_data [31:0] $end
$var wire 1 \ mem_write $end
$var reg 32 Y! read_data [31:0] $end
$var integer 32 Z! i [31:0] $end
$upscope $end
$upscope $end
$scope module WB_STAGE $end
$var wire 32 ] wb_alu_result [31:0] $end
$var wire 32 ^ wb_mem_data [31:0] $end
$var wire 6 _ wb_rd [5:0] $end
$var wire 6 ` wb_rt [5:0] $end
$var wire 4 a wb_opcode [3:0] $end
$var wire 1 d wb_reg_write $end
$var wire 1 e wb_mem_to_reg $end
$var wire 6 f wb_write_reg [5:0] $end
$var wire 32 g wb_write_data [31:0] $end
$var wire 1 h wb_write_en $end
$upscope $end
$upscope $end
$scope begin sim_loop $end
$var integer 32 [! t [31:0] $end
$upscope $end
$upscope $end
$enddefinitions $end

#0
$dumpvars
0!
b1111 !!
1"
b1111 "!
b0 #
b1111 #!
bx $
b0 $!
0%
b1111 %!
1&
1&!
b0 '
0'!
b1 (
0(!
0)
0)!
b11110011110011110111 *
0*!
b0 +
b101 +!
b0 ,
0,!
bx -
0-!
bx .
0.!
b0 /
bx /!
b1111 0
bx 0!
b1111 1
bx 1!
b1111 2
b0 2!
b111 3
b0 3!
14
b0 4!
05
b0 5!
06
b0 6!
07
b0 7!
08
b0 8!
09
b0 9!
0:
b0 :!
b101 ;
0;!
b0 <
0<!
b0 =
0=!
b0 >
0>!
b0 ?
0?!
b0 @
b0 @!
b0 A
0A!
b0 B
0B!
b0 C
1C!
0D
bx D!
0E
xE!
0F
bx F!
0G
b0 G!
0H
b0 H!
0I
1I!
0J
0J!
b0 K
b0 K!
b0 L
0L!
b0 M
0M!
b0 N
0N!
xO
b0 O!
xP
b0 P!
0Q
b0 Q!
1R
b0 R!
b0 S
b0 S!
b0 T
xT!
b0 U
xU!
b0 V
0V!
b0 W
0W!
xX
0X!
xY
b0 Y!
0Z
b100000000 Z!
0[
bx [!
0\
b0 ]
b0 ^
b0 _
b0 `
b0 a
xb
xc
0d
0e
b0 f
b0 g
0h
b0 i
b0 j
b11110011110011110111 k
xl
bx m
bx n
b111 o
b1 p
0q
0r
b1 s
0t
b0 u
b11110011110011110111 v
b100000000 w
0x
b11110011110011110111 y
b0 z
x{
bx |
bx }
b111 ~
$end

#5000
1!
1%
b0 -
b0 .
b0 D!
0E!
b0 F!
0l
b0 m
b0 n
0{
b0 |
b0 }

#10000
0!
0%

#15000
1!
1%

#20000
0!
0"
0%
0&
b1100 0!
b111 1!
b1111 7!
b1111 8!
b1111 9!
b111 :!
1;!
b1111 @
b101 @!
b1111 A
b1111 B
b111 C
0C!
1D
b101 K
1L!
1N!
1O
0P
0R
b0 [!

#25000
1!
b1 #
1%
b1 '
b10 (
b1 [!
b10011100011110000000101 k
b10 p
b1 u
b10011100011110000000101 v

#30000
0!
b0 !!
b1110 #!
b1 $!
0%
1&!
b10011100011110000000101 *
1*!
b1 +
b0 +!
b1 ,
b1 /
b1110 0
b0 2
b1 2!
b101 3
18
b0 ;
b1111 Q!
b1111 R!
b111 S!
1T!
b1111 U
0U!
b1111 V
1V!
b111 W
1X
0Y
1Z
b1111 _
b1111 `
b111 a
1b
0c
1d
b1111 f
1h
b101 o
b10011100011110000000101 y
b1 z
b101 ~

#35000
1!
b10 #
1%
b10 '
b11 (
b1111 D!
1E!
b10 [!
b1010011000011100111 k
1l
b1111 m
b11 p
b10 u
b1010011000011100111 v
1{
b1111 |

#40000
0!
b1110 !!
b1100 "!
b101 #!
b0 $!
0%
b1100 %!
1&!
b1010011000011100111 *
0*!
b10 +
b101 +!
b10 ,
b111 -
b0 /
b101 0
b1100 1
b1110 2
b0 2!
b111 3
b1 3!
b1 6!
b1110 7!
08
b0 9!
b101 :!
b101 ;
b1 <
b1 ?
1?!
b1110 @
b0 @!
b0 B
b101 C
1H
b1 H!
0I!
b0 K
b1 K!
b1 L
0L!
0N!
0O
b111 o
b1010011000011100111 y
b10 z
b111 ~

#45000
1!
b11 #
1%
b11 '
b100 (
b11 [!
b10000010100000001110 k
b100 p
b11 u
b10000010100000001110 v

#50000
0!
b0 !!
b1010 "!
b1000 #!
0%
b1010 %!
1&!
1'!
b10000010100000001110 *
1*!
b11 +
b0 +!
b11 ,
b10 -
b1000 0
b1010 1
b0 2
b1110 3
b10 3!
b111 4!
15
b0 6!
b101 7!
18
b1100 8!
b1110 9!
b111 :!
b0 ;
b10 <
b111 =
b0 ?
0?!
b101 @
b101 @!
b1100 A
b1110 B
b111 C
b111 G!
0H
b1 H!
b101 K
b110 K!
b110 L
1L!
b1 M
b111 N
1N!
b1 O!
b1110 Q!
b0 R!
b1 S
b101 S!
0T!
b1110 U
b0 V
b101 W
0X
b1 ]
b1110 _
b0 `
b101 a
0b
b1110 f
b1 g
b111 i
b1 j
b1110 o
b10000010100000001110 y
b11 z
b1110 ~

#55000
1!
b100 #
1%
b100 '
b101 (
b1110 D!
b1 F!
b100 [!
b0 k
b1110 m
b1 n
b101 p
b100 u
b0 v
b1110 |
b1 }

#60000
0!
b0 "!
b0 #!
0%
b0 %!
0&!
0'!
b0 *
0*!
b100 +
b100 ,
b0 -
1.!
b0 0
b0 1
b0 3
b11 3!
04
b10 4!
05
b1000 7!
08
b1010 8!
b0 9!
b1110 :!
b11 <
1<!
b10 =
1?!
b1000 @
b0 @!
b1010 A
b0 B
b1110 C
1E
b10 G!
1H
b0 H!
b0 K
b10 K!
b10 L
0L!
b0 M
b10 N
0N!
b110 O!
b1 P!
1Q
b101 Q!
b1110 R!
b110 S
b111 S!
b1 T
b101 U
b1110 V
b111 W
b10 Y!
b110 ]
b10 ^
b101 _
b1110 `
b111 a
b101 f
b110 g
b10 i
b0 j
b0 o
b0 y
b100 z
b0 ~

#65000
1!
b101 #
1%
b101 '
b110 (
b101 D!
b110 F!
b101 [!
b101 m
b110 n
b110 p
b101 u
b101 |
b110 }

#70000
0!
0%
b101 +
b101 ,
b100 3!
b0 4!
b0 7!
b0 8!
b0 :!
0;!
b100 <
0<!
b0 =
0?!
b0 @
b0 A
b0 C
1C!
0D
0E
b0 G!
0H
1I!
b0 K!
b0 L
b0 N
b10 O!
b0 P!
b1000 Q!
1R
b0 R!
b10 S
b1110 S!
b0 T
b1000 U
b0 V
b1110 W
1W!
b11 Y!
1[
b10 ]
b11 ^
b1000 _
b0 `
b1110 a
1e
b1000 f
b11 g
b0 i
b101 z

#75000
1!
b110 #
1%
b110 '
b111 (
b1000 D!
b11 F!
b110 [!
b10110010000011 k
b1000 m
b11 n
b111 p
b110 u
b10110010000011 v
b1000 |
b11 }

#80000
0!
b1000 !!
b1011 "!
0%
b1011 %!
1'!
1(!
b10110010000011 *
1*!
b110 +
b110 ,
b1000111 -
b11 .
0.!
b1011 1
b1000 2
b11 3
b101 3!
15
16
18
b101 <
b0 O!
0Q
b0 Q!
b0 S
b0 S!
b0 U
0V!
b0 W
0W!
b0 Y!
0Z
0[
b0 ]
b0 ^
b0 _
b0 a
0d
0e
b0 f
b0 g
0h
b11 o
b10110010000011 y
b110 z
b11 ~

#85000
1!
b111 #
1%
b111 '
b1000 (
b0 D!
0E!
b0 F!
b111 [!
b1100010100001010100 k
0l
b0 m
b0 n
b1000 p
b111 u
b1100010100001010100 v
0{
b0 |
b0 }

#90000
0!
b101 !!
b1010 "!
b110 #!
0%
b1010 %!
1&!
0'!
0(!
b1100010100001010100 *
0*!
b111 +
b111 ,
b10 -
b110 .
b110 0
b1010 1
b101 2
b100 3
b110 3!
14
b1000111 4!
05
b11 5!
06
08
b1011 8!
b1000 9!
b11 :!
b110 <
1<!
b1000111 =
1=!
b11 >
1?!
b1011 A
b1000 B
b11 C
0C!
1E
1F
b1000111 G!
1H
0I!
b1000111 K!
b1000111 L
b11 M
b1000111 N
0O
0R
b1000111 i
b11 j
b100 o
b1100010100001010100 y
b111 z
b100 ~

#95000
1!
b1000 #
1%
b1000 '
b1001 (
b1000 [!
b1110010110001010100 k
b1001 p
b1000 u
b1110010110001010100 v

#100000
0!
b1011 "!
b111 #!
0%
b1011 %!
b1110010110001010100 *
b1000 +
b1000 ,
b1000111 -
b111 0
b1011 1
b111 3!
b10 4!
b110 5!
b110 7!
b1010 8!
b101 9!
b100 :!
1;!
b111 <
0<!
b10 =
0=!
b110 >
0?!
b110 @
b1010 A
b101 B
b100 C
1D
0E
0F
b10 G!
0H
b110 H!
b1000 K!
b1000 L
b110 M
b10 N
b1000111 O!
b11 P!
b1000 R!
b1000111 S
b11 S!
b11 T
b1000 V
b11 W
1W!
1X!
1[
1\
b1000111 ]
b1000 `
b11 a
1e
b10 i
b110 j
b100 o
b1110010110001010100 y
b1000 z

#105000
1!
b1001 #
1%
b1001 '
b1010 (
b11 Y!
b1001 [!
b11 ^
b11 g
b10000001100000001110 k
b1010 p
b1001 u
b10000001100000001110 v

#110000
0!
b0 !!
b110 "!
b1000 #!
0%
b110 %!
1&!
1'!
b10000001100000001110 *
1*!
b1001 +
b1001 ,
b0 -
b0 .
b1000 0
b110 1
b0 2
b1110 3
b1000 3!
b1000111 4!
15
b111 7!
18
b1011 8!
b1000 <
b1000111 =
b111 @
b1011 A
b1000111 G!
b1001101 K!
b1001101 L
b1000111 N
b1000 O!
b110 P!
b110 Q!
b101 R!
b1000 S
b100 S!
b110 T
b110 U
b101 V
1V!
b100 W
0W!
0X!
b1000 Y!
1Z
0[
0\
b1000 ]
b1000 ^
b110 _
b101 `
b100 a
1d
0e
b110 f
b1000 g
1h
b1000111 i
b1110 o
b10000001100000001110 y
b1001 z
b1110 ~

#115000
1!
b1010 #
1%
b1010 '
b1011 (
b1000 -
b110 D!
1E!
b1000 F!
b1010 [!
b0 k
1l
b110 m
b1000 n
b1011 p
b1010 u
b0 v
1{
b110 |
b1000 }

#120000
0!
b0 "!
b0 #!
0%
b0 %!
0&!
0'!
b0 *
0*!
b1010 +
b1010 ,
b0 -
1.!
b0 0
b0 1
b0 3
b1001 3!
04
b1000 4!
05
b0 5!
b1000 7!
08
b110 8!
b0 9!
b1110 :!
b1001 <
1<!
b1000 =
b0 >
1?!
b1000 @
b110 A
b0 B
b1110 C
1E
b1000 G!
1H
b0 H!
b1000 K!
b1000 L
b0 M
b1000 N
b1001101 O!
1Q
b111 Q!
b1001101 S
b111 U
b0 Y!
b1001101 ]
b0 ^
b111 _
b111 f
b1001101 g
b1000 i
b0 j
b0 o
b0 y
b1010 z
b0 ~

#125000
1!
b1011 #
1%
b1011 '
b1100 (
b111 D!
b1001101 F!
b1011 [!
b111 m
b1001101 n
b1100 p
b1011 u
b111 |
b1001101 }

#130000
0!
0%
b1011 +
b1011 ,
b1010 3!
b0 4!
b0 7!
b0 8!
b0 :!
0;!
b1010 <
0<!
b0 =
0?!
b0 @
b0 A
b0 C
1C!
0D
0E
b0 G!
0H
1I!
b0 K!
b0 L
b0 N
b1000 O!
b0 P!
b1000 Q!
1R
b0 R!
b1000 S
b1110 S!
b0 T
b1000 U
b0 V
b1110 W
1W!
b1000 Y!
1[
b1000 ]
b1000 ^
b1000 _
b0 `
b1110 a
1e
b1000 f
b1000 g
b0 i
b1011 z

#135000
1!
b1100 #
1%
b1100 '
b1101 (
b1000 D!
b1000 F!
b1100 [!
b1110010000011 k
b1000 m
b1000 n
b1101 p
b1100 u
b1110010000011 v
b1000 |
b1000 }

#140000
0!
b1000 !!
b111 "!
0%
b111 %!
1'!
1(!
b1110010000011 *
1*!
b1100 +
b1100 ,
b1001101 -
b1000 .
0.!
b111 1
b1000 2
b11 3
b1011 3!
15
16
18
b1011 <
b0 O!
0Q
b0 Q!
b0 S
b0 S!
b0 U
0V!
b0 W
0W!
b0 Y!
0Z
0[
b0 ]
b0 ^
b0 _
b0 a
0d
0e
b0 f
b0 g
0h
b11 o
b1110010000011 y
b1100 z
b11 ~

#145000
1!
b1101 #
1%
b1101 '
b1110 (
b0 D!
0E!
b0 F!
b1101 [!
b10001000011110000000101 k
0l
b0 m
b0 n
b1110 p
b1101 u
b10001000011110000000101 v
0{
b0 |
b0 }

#150000
0!
b0 !!
b1111 "!
b100 #!
b1 $!
0%
b1111 %!
1&!
0'!
0(!
b10001000011110000000101 *
1*!
b1101 +
b1101 ,
b0 -
b0 .
b1 /
b100 0
b1111 1
b0 2
b1 2!
b101 3
b1100 3!
14
b1001101 4!
05
b1000 5!
06
b111 8!
b1000 9!
b11 :!
b1100 <
1<!
b1001101 =
1=!
b1000 >
1?!
b111 A
b1000 B
b11 C
0C!
1E
1F
b1001101 G!
1H
0I!
b1001101 K!
b1001101 L
b1000 M
b1001101 N
0O
0R
b1001101 i
b1000 j
b101 o
b10001000011110000000101 y
b1101 z
b101 ~

#155000
1!
b1110 #
1%
b1110 '
b1111 (
b1110 [!
b1101000101010000000000001111 k
b1111 p
b1110 u
b1101000101010000000000001111 v

#160000
0!
b0 "!
b10101 #!
b110100 $!
0%
b0 %!
1&!
1)!
b1101000101010000000000001111 *
1*!
b1110 +
b1110 ,
1.!
b110100 /
b10101 0
b0 1
b110100 2!
b1111 3
b1101 3!
b0 4!
b0 5!
b1 6!
17
b100 7!
b1111 8!
b0 9!
b101 :!
1;!
b1101 <
0<!
b0 =
0=!
b0 >
b1 ?
b100 @
b1111 A
b0 B
b101 C
1D
0E
0F
b0 G!
b1 H!
b1 K!
b1 L
b0 M
b0 N
b1001101 O!
b1000 P!
1Q
b1000 R!
b1001101 S
b11 S!
b1000 T
b1000 V
b11 W
1W!
1X!
1[
1\
b1001101 ]
b1000 `
b11 a
1e
b0 i
b0 j
b1111 o
b1101000101010000000000001111 y
b1110 z
b1111 ~

#165000
1!
b1111 #
1%
b1111 '
b10000 (
b1000 Y!
b1111 [!
b1000 ^
b1000 g
b1110101100000000000001111 k
b10000 p
b1111 u
b1110101100000000000001111 v

#170000
0!
b10110 #!
b111 $!
0%
b1110101100000000000001111 *
b1111 +
b1111 ,
b111 /
b10110 0
b111 2!
b1110 3!
b110100 6!
b10101 7!
b0 8!
b1111 :!
b1110 <
1>!
b110100 ?
b10101 @
b0 A
b1111 C
1C!
1G
b1110 G!
b110100 H!
b1000010 K!
b1000010 L
b1 O!
b0 P!
b100 Q!
1R
b0 R!
b1 S
b101 S!
b0 T
b100 U
b0 V
1V!
b101 W
0W!
0X!
b0 Y!
1Z
0[
0\
b1 ]
b0 ^
b100 _
b0 `
b101 a
1d
0e
b100 f
b1 g
1h
b1111 o
b1110101100000000000001111 y
b1111 z

#175000
1!
b10000 #
1%
b10000 '
b10001 (
b100 D!
1E!
b1 F!
b10000 [!
b10101000000000000001111 k
1l
b100 m
b1 n
b10001 p
b10000 u
b10101000000000000001111 v
1{
b100 |
b1 }

#180000
0!
b10100 #!
b1 $!
0%
b10101000000000000001111 *
b10000 +
b10000 ,
b1 /
b10100 0
b1 2!
b1111 3!
b111 6!
b10110 7!
b1111 <
b111 ?
b10110 @
b1111 G!
b111 H!
b10110 K!
b10110 L
b1000010 O!
b10101 Q!
b1000010 S
b1111 S!
b10101 U
b1111 W
b1000010 ]
b10101 _
b1111 a
b10101 f
b1000010 g
b1111 o
b10101000000000000001111 y
b10000 z

#185000
1!
b10001 #
1%
b10001 '
b10010 (
b10101 D!
b1000010 F!
b10001 [!
b11010001000001010111 k
b10101 m
b1000010 n
b10010 p
b10001 u
b11010001000001010111 v
b10101 |
b1000010 }

#190000
0!
b101 !!
b100 "!
b1101 #!
b0 $!
0%
b100 %!
1&!
0)!
b11010001000001010111 *
0*!
b10001 +
b101 +!
b10001 ,
b1 -
b110 .
0.!
b0 /
b1101 0
b100 1
b101 2
b0 2!
b111 3
b10000 3!
b1 6!
07
b10100 7!
08
b101 ;
b10000 <
b1 ?
b10100 @
b10000 G!
b1 H!
b10001 K!
b10001 L
b10110 O!
0Q
b10110 Q!
b10110 S
b10110 U
b10110 ]
b10110 _
b10110 f
b10110 g
b111 o
b11010001000001010111 y
b10001 z
b111 ~

#195000
1!
b10010 #
1%
b10010 '
b10011 (
b10110 D!
b10110 F!
b10010 [!
b0 k
b10110 m
b10110 n
b10011 p
b10010 u
b0 v
b10110 |
b10110 }

